{
  "count": 56,
  "next": "https://history-backend.herokuapp.com/api/v1/memory_posts/?page=2",
  "previous": null,
  "results": [
    {
      "id": 100,
      "username": "ramazan",
      "story": [
        {
          "type": "text",
          "payload": "asdasd"
        }
      ],
      "time": {
        "data": "date.date",
        "type": "this.state.timeType"
      },
      "tags": [],
      "location": [],
      "comments": [],
      "created": "26-11-2018 19:11:56",
      "updated": "26-11-2018 19:11:56",
      "title": "asdasd"
    },
    {
      "id": 99,
      "username": "ramazan",
      "story": [
        {
          "type": "text",
          "payload": "undefined"
        },
        {
          "type": "text",
          "payload": "asdasd"
        }
      ],
      "time": {
        "data": "date.date",
        "type": "this.state.timeType"
      },
      "tags": [],
      "location": [
        {
          "type": "area",
          "points": [
            {
              "lat": 41.32133056724482,
              "lng": 28.965797089843818
            },
            {
              "lat": 41.18298090752276,
              "lng": 29.361304902343818
            },
            {
              "lat": 40.97801771409932,
              "lng": 29.243201875000068
            },
            {
              "lat": 40.9738704578335,
              "lng": 28.757056855468818
            }
          ]
        }
      ],
      "comments": [],
      "created": "26-11-2018 19:11:16",
      "updated": "26-11-2018 19:11:16",
      "title": "asdasd"
    },
    {
      "id": 98,
      "username": "ramazan",
      "story": [
        {
          "type": "text",
          "payload": "undefined"
        },
        {
          "type": "text",
          "payload": "asdasd"
        }
      ],
      "time": {
        "data": "date.date",
        "type": "this.state.timeType"
      },
      "tags": [],
      "location": [
        {
          "type": "certain",
          "points": [
            {
              "lat1": 39.33896413543331,
              "lng1": 34.18311933593748
            }
          ]
        }
      ],
      "comments": [],
      "created": "26-11-2018 19:10:15",
      "updated": "26-11-2018 19:10:15",
      "title": "asdasd"
    },
    {
      "id": 97,
      "username": "ramazan",
      "story": [
        {
          "type": "text",
          "payload": "[object Object]"
        },
        {
          "type": "text",
          "payload": "asdasd"
        }
      ],
      "time": {
        "data": "date.date",
        "type": "this.state.timeType"
      },
      "tags": [],
      "location": [],
      "comments": [],
      "created": "26-11-2018 19:09:24",
      "updated": "26-11-2018 19:09:24",
      "title": "asdasd"
    },
    {
      "id": 96,
      "username": "ramazan",
      "story": [
        {
          "type": "text",
          "payload": "shshhs"
        },
        {
          "type": "image/png",
          "payload": "https://history-media.s3.amazonaws.com/memory_post/96_1_2018-11-26_10-31-08_Screen_Shot_2018-08-28_at_00.24.37.png"
        }
      ],
      "time": {
        "data": "date.date",
        "type": "this.state.timeType"
      },
      "tags": [],
      "location": [
        {
          "type": "path",
          "points": [
            {
              "lat1": 41.85073,
              "lng1": -87.65126
            },
            {
              "lat2": 41.85258,
              "lng2": -87.65141
            }
          ]
        }
      ],
      "comments": [],
      "created": "26-11-2018 10:31:08",
      "updated": "26-11-2018 10:31:08",
      "title": "asdasd"
    },
    {
      "id": 95,
      "username": "ramazan",
      "story": [
        {
          "type": "text",
          "payload": "shshhs"
        },
        {
          "type": "image/png",
          "payload": "https://history-media.s3.amazonaws.com/memory_post/95_1_2018-11-26_10-30-05_Screen_Shot_2018-08-28_at_00.24.37.png"
        }
      ],
      "time": {
        "data": "date.date",
        "type": "this.state.timeType"
      },
      "tags": [],
      "location": [
        {
          "type": "area",
          "points": [
            {
              "lat": 41.32133056724482,
              "lng": 29.762305878906318
            },
            {
              "lat": 41.12093835191238,
              "lng": 29.042701386718818
            },
            {
              "lat": 41.21398016525462,
              "lng": 28.680152558593818
            },
            {
              "lat": 41.10438375493505,
              "lng": 29.037208222656318
            },
            {
              "lat": 41.05262373615964,
              "lng": 29.666175507812568
            },
            {
              "lat": 40.9738704578335,
              "lng": 29.597510957031318
            }
          ]
        }
      ],
      "comments": [],
      "created": "26-11-2018 10:30:05",
      "updated": "26-11-2018 10:30:05",
      "title": "asdasd"
    },
    {
      "id": 94,
      "username": "ramazan",
      "story": [
        {
          "type": "text",
          "payload": "asdasdfjn"
        },
        {
          "type": "text",
          "payload": "undefined"
        }
      ],
      "time": {
        "data": "date.date",
        "type": "this.state.timeType"
      },
      "tags": [],
      "location": [
        {
          "type": "path",
          "points": [
            {
              "lat1": 41.85073,
              "lng1": -87.65126
            },
            {
              "lat2": 41.85258,
              "lng2": -87.65141
            }
          ]
        }
      ],
      "comments": [],
      "created": "26-11-2018 10:08:11",
      "updated": "26-11-2018 10:08:11",
      "title": "aslan"
    },
    {
      "id": 93,
      "username": "ramazan",
      "story": [
        {
          "type": "text",
          "payload": "asdasdfjn"
        },
        {
          "type": "image/png",
          "payload": "https://history-media.s3.amazonaws.com/memory_post/93_1_2018-11-26_10-07-40_Screen_Shot_2018-08-28_at_00.24.37.png"
        }
      ],
      "time": {
        "data": "date.date",
        "type": "this.state.timeType"
      },
      "tags": [],
      "location": [
        {
          "type": "area",
          "points": [
            {
              "lat": 41.0754031659898,
              "lng": 28.811988496093818
            },
            {
              "lat": 40.84517621869034,
              "lng": 29.056434296875068
            },
            {
              "lat": 40.9448323638587,
              "lng": 29.526099824218818
            },
            {
              "lat": 41.205715132098526,
              "lng": 29.347571992187568
            },
            {
              "lat": 41.19951567205431,
              "lng": 29.050941132812568
            }
          ]
        }
      ],
      "comments": [],
      "created": "26-11-2018 10:07:40",
      "updated": "26-11-2018 10:07:41",
      "title": "aslan"
    },
    {
      "id": 92,
      "username": "ramazan",
      "story": [
        {
          "type": "text",
          "payload": "asfhjkl"
        }
      ],
      "time": {
        "data": "date.date",
        "type": "this.state.timeType"
      },
      "tags": [],
      "location": [
        {
          "type": "certain",
          "points": [
            {
              "lat1": 38.49271729474956,
              "lng1": 36.24854902343748
            }
          ]
        }
      ],
      "comments": [],
      "created": "26-11-2018 09:31:13",
      "updated": "26-11-2018 09:31:13",
      "title": "aslan"
    },
    {
      "id": 91,
      "username": "ramazan",
      "story": [
        {
          "type": "text",
          "payload": "azxaasda"
        },
        {
          "type": "image/png",
          "payload": "https://history-media.s3.amazonaws.com/memory_post/91_1_2018-11-25_21-20-52_Screen_Shot_2018-08-28_at_00.24.37.png"
        }
      ],
      "time": {
        "data": "date.date",
        "type": "this.state.timeType"
      },
      "tags": [],
      "location": [
        {
          "type": "region",
          "points": [
            {
              "lat1": "location.lat",
              "lng1": "location.lng"
            }
          ]
        }
      ],
      "comments": [],
      "created": "25-11-2018 21:20:52",
      "updated": "25-11-2018 21:20:53",
      "title": "dasd"
    }
  ]
}
